…
#>  2 auburn, grey      1    1.15   2.30  1.22      2.44
#>  3 auburn, white     1    1.15   3.45  1.22      3.66
#>  4 black            13   14.9   18.4  15.9      19.5 
#>  5 blond             3    3.45  21.8   3.66     23.2 
#>  6 blonde            1    1.15  23.0   1.22     24.4 
#>  7 brown            18   20.7   43.7  22.0      46.3 
#>  8 brown, grey       1    1.15  44.8   1.22     47.6 
#>  9 grey              1    1.15  46.0   1.22     48.8 
#> 10 none             37   42.5   88.5  45.1      93.9 
#> 11 unknown           1    1.15  89.7   1.22     95.1 
#> 12 white             4    4.60  94.3   4.88    100   
#> 13 <NA>              5    5.75 100    NA        NA   
#> 
#> $skin_color
#> # A tibble: 31 × 6
#>    value                   n percent   cum valid valid_cum
#>    <chr>               <int>   <dbl> <dbl> <dbl>     <dbl>
#>  1 blue                    2    2.30  2.30  2.30      2.30
#>  2 blue, grey              2    2.30  4.60  2.30      4.60
#>  3 brown                   4    4.60  9.20  4.60      9.20
#>  4 brown mottle            1    1.15 10.3   1.15     10.3 
#>  5 brown, white            1    1.15 11.5   1.15     11.5 
#>  6 dark                    6    6.90 18.4   6.90     18.4 
#>  7 fair                   17   19.5  37.9  19.5      37.9 
#>  8 fair, green, yellow     1    1.15 39.1   1.15     39.1 
#>  9 gold                    1    1.15 40.2   1.15     40.2 
#> 10 green                   6    6.90 47.1   6.90     47.1 
#> # ℹ 21 more rows
…
`.append` flattens the list into a tibble.

``` r
tab1(starwars, s_match("*color"), .append = TRUE)
#> # A tibble: 59 × 7
#>    variable   value             n percent   cum valid valid_cum
#>    <chr>      <chr>         <int>   <dbl> <dbl> <dbl>     <dbl>
#>  1 hair_color auburn            1    1.15  1.15  1.22      1.22
#>  2 hair_color auburn, grey      1    1.15  2.30  1.22      2.44
#>  3 hair_color auburn, white     1    1.15  3.45  1.22      3.66
#>  4 hair_color black            13   14.9  18.4  15.9      19.5 
#>  5 hair_color blond             3    3.45 21.8   3.66     23.2 
#>  6 hair_color blonde            1    1.15 23.0   1.22     24.4 
#>  7 hair_color brown            18   20.7  43.7  22.0      46.3 
#>  8 hair_color brown, grey       1    1.15 44.8   1.22     47.6 
#>  9 hair_color grey              1    1.15 46.0   1.22     48.8 
#> 10 hair_color none             37   42.5  88.5  45.1      93.9 
#> # ℹ 49 more rows
```
…
