Life expectancy data in 1998 — lifeexp • statart
…
lexp
Life expectancy at birth (years)

gnppc
GNP per capita

safewater
Safe water (%)

    Examples

lifeexp
#> # A tibble: 68 × 6
#>    region               country                popgrowth  lexp gnppc safewater
#>    <dbl+lbl>            <chr>                      <dbl> <dbl> <dbl>     <dbl>
#>  1 1 [Europe & C. Asia] Albania                    1.20     72   810        76
#>  2 1 [Europe & C. Asia] Armenia                    1.10     74   460        NA
#>  3 1 [Europe & C. Asia] Austria                    0.400    79 26830        NA
#>  4 1 [Europe & C. Asia] Azerbaijan                 1.40     71   480        NA
#>  5 1 [Europe & C. Asia] Belarus                    0.300    68  2180        NA
#>  6 1 [Europe & C. Asia] Belgium                    0.200    78 25380        NA
#>  7 1 [Europe & C. Asia] Bosnia and Herzegovina    -0.5      73    NA        NA
#>  8 1 [Europe & C. Asia] Bulgaria                  -0.400    71  1220        NA
#>  9 1 [Europe & C. Asia] Croatia                   -0.100    73  4620        63
#> 10 1 [Europe & C. Asia] Czech Republic             0        75  5150        NA
#> # ℹ 58 more rows
…
