Tabulate columns — tab • statart
…
tab(starwars, male = sex == "male")
#> # A tibble: 3 × 6
#>   male      n percent   cum valid valid_cum
#>   <lgl> <int>   <dbl> <dbl> <dbl>     <dbl>
#> 1 FALSE    23   26.4   26.4  27.7      27.7
#> 2 TRUE     60   69.0   95.4  72.3     100  
#> 3 NA        4    4.60 100    NA        NA  

tab(starwars, ends_with("color"))
#> # A tibble: 67 × 8
#>    hair_color    skin_color eye_color     n percent   cum valid valid_cum
#>    <chr>         <chr>      <chr>     <int>   <dbl> <dbl> <dbl>     <dbl>
#>  1 auburn        fair       blue          1    1.15  1.15  1.22      1.22
#>  2 auburn, grey  fair       blue          1    1.15  2.30  1.22      2.44
#>  3 auburn, white fair       blue-gray     1    1.15  3.45  1.22      3.66
#>  4 black         blue, grey yellow        1    1.15  4.60  1.22      4.88
#>  5 black         brown      brown         1    1.15  5.75  1.22      6.10
#>  6 black         dark       brown         3    3.45  9.20  3.66      9.76
#>  7 black         dark       dark          1    1.15 10.3   1.22     11.0 
#>  8 black         fair       brown         2    2.30 12.6   2.44     13.4 
#>  9 black         light      brown         1    1.15 13.8   1.22     14.6 
#> 10 black         tan        brown         2    2.30 16.1   2.44     17.1 
#> # ℹ 57 more rows

tab(starwars, s_match("s*e"))
#> # A tibble: 1 × 5
#>       n percent   cum valid valid_cum
#>   <int>   <dbl> <dbl> <dbl>     <dbl>
#> 1    87     100   100   100       100

tab(starwars)
#> # A tibble: 87 × 19
#>    name     height  mass hair_color skin_color eye_color birth_year sex   gender
#>    <chr>     <int> <dbl> <chr>      <chr>      <chr>          <dbl> <chr> <chr> 
#>  1 Ackbar      180  83   none       brown mot… orange          41   male  mascu…
#>  2 Anakin …    188  84   blond      fair       blue            41.9 male  mascu…
#>  3 Ayla Se…    178  55   none       blue       hazel           48   fema… femin…
#>  4 Barriss…    166  50   black      yellow     blue            40   fema… femin…
#>  5 Beru Wh…    165  75   brown      light      blue            47   fema… femin…
#>  6 Biggs D…    183  84   black      light      brown           24   male  mascu…
#>  7 Boba Fe…    183  78.2 black      fair       brown           31.5 male  mascu…
#>  8 Bossk       190 113   none       green      red             53   male  mascu…
#>  9 Chewbac…    228 112   brown      unknown    blue           200   male  mascu…
#> 10 Darth M…    175  80   none       red        yellow          54   male  mascu…
#> # ℹ 77 more rows
#> # ℹ 10 more variables: homeworld <chr>, species <chr>, films <list>,
#> #   vehicles <list>, starships <list>, n <int>, percent <dbl>, cum <dbl>,
#> #   valid <dbl>, valid_cum <dbl>

tab1(starwars, 1:3)
#> $name
#> # A tibble: 87 × 6
#>    value                   n percent   cum valid valid_cum
#>    <chr>               <int>   <dbl> <dbl> <dbl>     <dbl>
#>  1 Ackbar                  1    1.15  1.15  1.15      1.15
#>  2 Adi Gallia              1    1.15  2.30  1.15      2.30
#>  3 Anakin Skywalker        1    1.15  3.45  1.15      3.45
#>  4 Arvel Crynyd            1    1.15  4.60  1.15      4.60
#>  5 Ayla Secura             1    1.15  5.75  1.15      5.75
#>  6 BB8                     1    1.15  6.90  1.15      6.90
#>  7 Bail Prestor Organa     1    1.15  8.05  1.15      8.05
#>  8 Barriss Offee           1    1.15  9.20  1.15      9.20
#>  9 Ben Quadinaros          1    1.15 10.3   1.15     10.3 
#> 10 Beru Whitesun lars      1    1.15 11.5   1.15     11.5 
#> # ℹ 77 more rows
#> 
#> $height
#> # A tibble: 46 × 6
#>    value     n percent   cum valid valid_cum
#>    <int> <int>   <dbl> <dbl> <dbl>     <dbl>
#>  1    66     1    1.15  1.15  1.23      1.23
#>  2    79     1    1.15  2.30  1.23      2.47
#>  3    88     1    1.15  3.45  1.23      3.70
#>  4    94     1    1.15  4.60  1.23      4.94
#>  5    96     2    2.30  6.90  2.47      7.41
#>  6    97     1    1.15  8.05  1.23      8.64
#>  7   112     1    1.15  9.20  1.23      9.88
#>  8   122     1    1.15 10.3   1.23     11.1 
#>  9   137     1    1.15 11.5   1.23     12.3 
#> 10   150     2    2.30 13.8   2.47     14.8 
#> # ℹ 36 more rows
#> 
#> $mass
#> # A tibble: 39 × 6
#>    value     n percent   cum valid valid_cum
#>    <dbl> <int>   <dbl> <dbl> <dbl>     <dbl>
#>  1    15     1    1.15  1.15  1.69      1.69
#>  2    17     1    1.15  2.30  1.69      3.39
#>  3    20     1    1.15  3.45  1.69      5.08
#>  4    32     2    2.30  5.75  3.39      8.47
#>  5    40     1    1.15  6.90  1.69     10.2 
#>  6    45     2    2.30  9.20  3.39     13.6 
#>  7    48     2    2.30 11.5   3.39     16.9 
#>  8    49     1    1.15 12.6   1.69     18.6 
#>  9    50     2    2.30 14.9   3.39     22.0 
#> 10    55     2    2.30 17.2   3.39     25.4 
#> # ℹ 29 more rows
…
#>  2 auburn, grey      1    1.15   2.30  1.22      2.44
#>  3 auburn, white     1    1.15   3.45  1.22      3.66
#>  4 black            13   14.9   18.4  15.9      19.5 
#>  5 blond             3    3.45  21.8   3.66     23.2 
#>  6 blonde            1    1.15  23.0   1.22     24.4 
#>  7 brown            18   20.7   43.7  22.0      46.3 
#>  8 brown, grey       1    1.15  44.8   1.22     47.6 
#>  9 grey              1    1.15  46.0   1.22     48.8 
#> 10 none             37   42.5   88.5  45.1      93.9 
#> 11 unknown           1    1.15  89.7   1.22     95.1 
#> 12 white             4    4.60  94.3   4.88    100   
#> 13 NA                5    5.75 100    NA        NA   
#> 
#> $skin_color
#> # A tibble: 31 × 6
#>    value                   n percent   cum valid valid_cum
#>    <chr>               <int>   <dbl> <dbl> <dbl>     <dbl>
#>  1 blue                    2    2.30  2.30  2.30      2.30
#>  2 blue, grey              2    2.30  4.60  2.30      4.60
#>  3 brown                   4    4.60  9.20  4.60      9.20
#>  4 brown mottle            1    1.15 10.3   1.15     10.3 
#>  5 brown, white            1    1.15 11.5   1.15     11.5 
#>  6 dark                    6    6.90 18.4   6.90     18.4 
#>  7 fair                   17   19.5  37.9  19.5      37.9 
#>  8 fair, green, yellow     1    1.15 39.1   1.15     39.1 
#>  9 gold                    1    1.15 40.2   1.15     40.2 
#> 10 green                   6    6.90 47.1   6.90     47.1 
#> # ℹ 21 more rows
…
tab1(starwars, ends_with("color"), .type = "tibble")
#> # A tibble: 59 × 7
#>    variable   value             n percent   cum valid valid_cum
#>    <chr>      <chr>         <int>   <dbl> <dbl> <dbl>     <dbl>
#>  1 hair_color auburn            1    1.15  1.15  1.22      1.22
#>  2 hair_color auburn, grey      1    1.15  2.30  1.22      2.44
#>  3 hair_color auburn, white     1    1.15  3.45  1.22      3.66
#>  4 hair_color black            13   14.9  18.4  15.9      19.5 
#>  5 hair_color blond             3    3.45 21.8   3.66     23.2 
#>  6 hair_color blonde            1    1.15 23.0   1.22     24.4 
#>  7 hair_color brown            18   20.7  43.7  22.0      46.3 
#>  8 hair_color brown, grey       1    1.15 44.8   1.22     47.6 
#>  9 hair_color grey              1    1.15 46.0   1.22     48.8 
#> 10 hair_color none             37   42.5  88.5  45.1      93.9 
#> # ℹ 49 more rows
…
#>  4 black            13   14.9   18.4   15.9      19.5 
#>  5 blond             3    3.45  21.8    3.66     23.2 
#>  6 blonde            1    1.15  23.0    1.22     24.4 
#>  7 brown            18   20.7   43.7   22.0      46.3 
#>  8 brown, grey       1    1.15  44.8    1.22     47.6 
#>  9 grey              1    1.15  46.0    1.22     48.8 
#> 10 none             37   42.5   88.5   45.1      93.9 
#> 11 unknown           1    1.15  89.7    1.22     95.1 
#> 12 white             4    4.60  94.3    4.88    100   
#> 13 Valid Total      82   94.3   NA    100        NA   
#> 14 NA                5    5.75 100     NA        NA   
#> 15 Total            87  100     NA     NA        NA   
#> 
#> $skin_color
#> # A tibble: 32 × 6
#>    value                   n percent   cum valid valid_cum
#>    <chr>               <int>   <dbl> <dbl> <dbl>     <dbl>
#>  1 blue                    2    2.30  2.30  2.30      2.30
#>  2 blue, grey              2    2.30  4.60  2.30      4.60
#>  3 brown                   4    4.60  9.20  4.60      9.20
#>  4 brown mottle            1    1.15 10.3   1.15     10.3 
#>  5 brown, white            1    1.15 11.5   1.15     11.5 
#>  6 dark                    6    6.90 18.4   6.90     18.4 
#>  7 fair                   17   19.5  37.9  19.5      37.9 
#>  8 fair, green, yellow     1    1.15 39.1   1.15     39.1 
#>  9 gold                    1    1.15 40.2   1.15     40.2 
#> 10 green                   6    6.90 47.1   6.90     47.1 
#> # ℹ 22 more rows
…
tab2(starwars, sex, gender)
#> # A tibble: 5 × 4
#>   `sex \\ gender` feminine masculine  `NA`
#>   <chr>              <int>     <int> <int>
#> 1 female                16         0     0
#> 2 hermaphroditic         0         1     0
#> 3 male                   0        60     0
#> 4 none                   1         5     0
#> 5 NA                     0         0     4

tab2(starwars, height, gender)
#> # A tibble: 46 × 4
#>    `height \\ gender` masculine feminine  `NA`
#>                 <int>     <int>    <int> <int>
#>  1                 66         1        0     0
#>  2                 79         1        0     0
#>  3                 88         1        0     0
#>  4                 94         1        0     0
#>  5                 96         1        1     0
#>  6                 97         1        0     0
#>  7                112         1        0     0
#>  8                122         1        0     0
#>  9                137         1        0     0
#> 10                150         0        2     0
#> # ℹ 36 more rows
…
